<?xml version="1.0" encoding="utf-8"?>
<!-- Generator: Adobe Illustrator 18.1.0, SVG Export Plug-In . SVG Version: 6.00 Build 0)  -->
<!DOCTYPE svg PUBLIC "-//W3C//DTD SVG 1.1//EN" "http://www.w3.org/Graphics/SVG/1.1/DTD/svg11.dtd">
<svg version="1.1" xmlns="http://www.w3.org/2000/svg" xmlns:xlink="http://www.w3.org/1999/xlink" x="0px" y="0px"
	 viewBox="0 0 781.4 311.2" enable-background="new 0 0 781.4 311.2" xml:space="preserve">
<g id="Layer_7">
</g>
<g id="Guias">
</g>
<g id="Layer_1">
</g>
<g id="Layer_2_copy_2">
</g>
<g id="Layer_13">
</g>
<g id="Layer_5">
</g>
<g id="Layer_10">
</g>
<g id="Layer_8">
</g>
<g id="Layer_9" opacity="0.25">
</g>
<g id="Layer_11">
	<polygon fill="#5187CD" points="226.2,58.3 226.2,65.6 195.3,89.2 195.3,58.3 	"/>
	<rect x="195.3" y="99.5" fill="#995150" width="30.8" height="113.1"/>
	<path fill="#995150" d="M277.6,78.9v20.6h20.6v31.2l-20.6-0.4v51.4h20.6v30.8h-30.8c-13.7,0-20.6-6.9-20.6-20.6V78.9H277.6z"/>
	<path fill="#995150" d="M421.5,212.6h-82.2c-13.7,0-20.6-6.9-20.6-20.6v-72c0-13.7,6.9-20.6,20.6-20.6h90.1l-3.2,30.8h-76.6v51.4
		h61.7V58.3h30.8V192C442.1,205.7,435.2,212.6,421.5,212.6z"/>
	<path fill="#995150" d="M586,192c0,13.7-6.9,20.6-20.6,20.6h-82.2c-13.7,0-20.6-6.9-20.6-20.6v-72c0-13.7,6.9-20.6,20.6-20.6h82.2
		c13.7,0,20.6,6.8,20.6,20.6V192z M493.5,130.3v51.4h61.7v-51.4H493.5z"/>
	<g>
		<path fill="#995150" d="M102.9,181.7h40.9l0.1-82.2h30.7V192c0,13.7-6.9,20.6-20.6,20.6H20.5C6.8,212.6,0,205.7,0,192V99.5h30.8
			v82.2h41.2H102.9z"/>
		<rect x="71" y="117.7" fill="#995150" width="30.8" height="56.9"/>
	</g>
	<path fill="#5187CD" d="M75.3,23.8l-31.5,0l0,63.3l-23.7,0L20.1,16C20.1,5.4,25.4,0,35.9,0l102.8,0c10.5,0,15.8,5.3,15.8,15.8
		l0.1,71.2l-23.7,0l-0.1-63.3l-31.7,0L75.3,23.8z"/>
	<g>
		<path fill="#995150" d="M678.5,129.4h-40.9l-0.1,82.2h-30.7v-92.5c0-13.7,6.9-20.6,20.6-20.6h133.6c13.7,0,20.5,6.9,20.5,20.6
			v92.5h-30.8v-82.2h-41.2H678.5z"/>
		<rect x="679.5" y="136.6" fill="#995150" width="30.8" height="56.9"/>
	</g>
	<path fill="#5187CD" d="M706,287.4l31.5,0l0-63.3l23.7,0l0.1,71.2c0,10.5-5.3,15.9-15.8,16H642.7c-10.5,0-15.8-5.3-15.8-15.8
		l-0.1-71.2l23.7,0l0.1,63.3l31.7,0L706,287.4z"/>
</g>
</svg>
